{
  "scopeName": "source.ubexpr",
  "patterns": [{ "include": "#expression" }],
  "repository": {
    "expression": {
      "patterns": [
        { "include": "#exprmethod" },
        { "include": "#usermethod" },
        { "include": "#string" },
        { "include": "#numbers" },
        { "include": "#operators" },
        { "include": "#variables" },
        { "include": "#regex-op" },
        { "include": "#unquoted-string" }
      ]
    },
    "exprmethod": {
      "begin": "([a-zA-Z0-9]+)(\\[)",
      "end": "\\]",
      "beginCaptures": {
        "1": { "name": "entity.name.function.ubexpr" },
        "2": { "name": "punctuation.code.open" }
      },
      "endCaptures": {
        "0": { "name": "punctuation.code.close" }
      },
      "patterns": [
        {
          "include": "#expression"
        }
      ]
    },
    "usermethod": {
      "begin": "(\\()([^\\)]*)(\\))\\s*(\\=\\>)\\s*(\\{)",
      "end": "\\}",
      "beginCaptures": {
        "1": { "name": "keyword.other" },
        "2": { "patterns": [
          {
            "include": "#user-function-params"
          }
        ] },
        "3": { "name": "keyword.other" },
        "4": { "name": "keyword.other" }
      },
      "endCaptures": {
        "0": { "name": "punctuation.code.close" }
      },
      "patterns": [
        {
          "include": "#expression"
        }
      ]
    },
    "user-function-params": {
      "match": ",?\\s*([a-zA-Z0-9_]+)*",
      "captures": {
        "1": { "name": "variable.parameter.ubexpr" }
      }
    },
    "operators": {
      "match": "(\\&\\&|\\|\\|)",
      "captures": {
        "0": { "name": "keyword.operator" }
      }
    },
    "string": {
      "begin": "`",
      "end": "`",
      "name": "string.quoted.double.ubexpr",
      "patterns": [
        {
          "include": "#escape-char"
        }
      ]
    },
    "numbers": {
      "match": "((0x[A-F0-9]+|(\\-)?\\d+(\\.\\d+)?))",
      "name": "constant.numeric"
    },
    "regex-op": {
      "match": "(#)(.*);",
      "captures": {
        "1": { "name": "keyword.other" },
        "2": {
          "patterns": [
            {
              "include": "#regexp"
            }
          ]
        }
      }
    },
    "variables": {
      "match": "(\\$|\\@|\\&)(([a-zA-Z_]|(\\\\.))([a-zA-Z0-9_ ']|(\\\\.))*)?",
      "name": "variable.other",
      "captures": {
        "0": {
          "patterns": [
            {
              "include": "#escape-char"
            }
          ]
        }
      }
    },
    "unquoted-string": {
      "match": "([a-zA-Z_]|\\\\.)([a-zA-Z0-9_ ']|\\\\.)*",
      "name": "string.unquoted.double.ubexpr",
      "captures": {
        "0": {
          "patterns": [
            {
              "include": "#escape-char"
            }
          ]
        }
      }
    },
    "escape-char": {
      "name": "constant.character.escape.ubexpr",
      "match": "\\\\."
    },
		"regexp": {
			"patterns": [
				{
					"name": "keyword.control.anchor.regexp",
					"match": "\\\\[bB]|\\^|\\$"
				},
				{
					"match": "\\\\[1-9]\\d*|\\\\k<([a-zA-Z_$][\\w$]*)>",
					"captures": {
						"0": {
							"name": "keyword.other.back-reference.regexp"
						},
						"1": {
							"name": "variable.other.regexp"
						}
					}
				},
				{
					"name": "keyword.operator.quantifier.regexp",
					"match": "[?+*]|\\{(\\d+,\\d+|\\d+,|,\\d+|\\d+)\\}\\??"
				},
				{
					"name": "keyword.operator.or.regexp",
					"match": "\\|"
				},
				{
					"name": "meta.group.assertion.regexp",
					"begin": "(\\()((\\?=)|(\\?!)|(\\?<=)|(\\?<!))",
					"beginCaptures": {
						"1": {
							"name": "punctuation.definition.group.regexp"
						},
						"2": {
							"name": "punctuation.definition.group.assertion.regexp"
						},
						"3": {
							"name": "meta.assertion.look-ahead.regexp"
						},
						"4": {
							"name": "meta.assertion.negative-look-ahead.regexp"
						},
						"5": {
							"name": "meta.assertion.look-behind.regexp"
						},
						"6": {
							"name": "meta.assertion.negative-look-behind.regexp"
						}
					},
					"end": "(\\))",
					"endCaptures": {
						"1": {
							"name": "punctuation.definition.group.regexp"
						}
					},
					"patterns": [
						{
							"include": "#regexp"
						}
					]
				},
				{
					"name": "meta.group.regexp",
					"begin": "\\((?:(\\?:)|(?:\\?<([a-zA-Z_$][\\w$]*)>))?",
					"beginCaptures": {
						"0": {
							"name": "punctuation.definition.group.regexp"
						},
						"1": {
							"name": "punctuation.definition.group.no-capture.regexp"
						},
						"2": {
							"name": "variable.other.regexp"
						}
					},
					"end": "\\)",
					"endCaptures": {
						"0": {
							"name": "punctuation.definition.group.regexp"
						}
					},
					"patterns": [
						{
							"include": "#regexp"
						}
					]
				},
				{
					"name": "constant.other.character-class.set.regexp",
					"begin": "(\\[)(\\^)?",
					"beginCaptures": {
						"1": {
							"name": "punctuation.definition.character-class.regexp"
						},
						"2": {
							"name": "keyword.operator.negation.regexp"
						}
					},
					"end": "(\\])",
					"endCaptures": {
						"1": {
							"name": "punctuation.definition.character-class.regexp"
						}
					},
					"patterns": [
						{
							"name": "constant.other.character-class.range.regexp",
							"match": "(?:.|(\\\\(?:[0-7]{3}|x[0-9A-Fa-f]{2}|u[0-9A-Fa-f]{4}))|(\\\\c[A-Z])|(\\\\.))\\-(?:[^\\]\\\\]|(\\\\(?:[0-7]{3}|x[0-9A-Fa-f]{2}|u[0-9A-Fa-f]{4}))|(\\\\c[A-Z])|(\\\\.))",
							"captures": {
								"1": {
									"name": "constant.character.numeric.regexp"
								},
								"2": {
									"name": "constant.character.control.regexp"
								},
								"3": {
									"name": "constant.character.escape.backslash.regexp"
								},
								"4": {
									"name": "constant.character.numeric.regexp"
								},
								"5": {
									"name": "constant.character.control.regexp"
								},
								"6": {
									"name": "constant.character.escape.backslash.regexp"
								}
							}
						},
						{
							"include": "#regex-character-class"
						}
					]
				},
				{
					"include": "#regex-character-class"
				}
			]
		},
		"regex-character-class": {
			"patterns": [
				{
					"name": "constant.other.character-class.regexp",
					"match": "\\\\[wWsSdDtrnvf]|\\."
				},
				{
					"name": "constant.character.numeric.regexp",
					"match": "\\\\([0-7]{3}|x[0-9A-Fa-f]{2}|u[0-9A-Fa-f]{4})"
				},
				{
					"name": "constant.character.control.regexp",
					"match": "\\\\c[A-Z]"
				},
				{
					"name": "constant.character.escape.backslash.regexp",
					"match": "\\\\."
				}
			]
		}
  }
}